<?xml version="1.0" encoding="UTF-8" standalone="no"?>
<!-- Created with Inkscape (http://www.inkscape.org/) -->

<svg
   xmlns:dc="http://purl.org/dc/elements/1.1/"
   xmlns:cc="http://creativecommons.org/ns#"
   xmlns:rdf="http://www.w3.org/1999/02/22-rdf-syntax-ns#"
   xmlns:svg="http://www.w3.org/2000/svg"
   xmlns="http://www.w3.org/2000/svg"
   xmlns:sodipodi="http://sodipodi.sourceforge.net/DTD/sodipodi-0.dtd"
   xmlns:inkscape="http://www.inkscape.org/namespaces/inkscape"
   width="100mm"
   height="50mm"
   viewBox="0 0 100 50"
   version="1.1"
   id="svg8"
   inkscape:version="0.92.3 (2405546, 2018-03-11)"
   sodipodi:docname="nn.svg">
  <defs
     id="defs2" />
  <sodipodi:namedview
     id="base"
     pagecolor="#ffffff"
     bordercolor="#666666"
     borderopacity="1.0"
     inkscape:pageopacity="0.0"
     inkscape:pageshadow="2"
     inkscape:zoom="3.959798"
     inkscape:cx="144.53091"
     inkscape:cy="132.62113"
     inkscape:document-units="mm"
     inkscape:current-layer="layer1"
     showgrid="false"
     inkscape:snap-global="true"
     inkscape:snap-bbox="true"
     inkscape:window-width="2520"
     inkscape:window-height="1481"
     inkscape:window-x="-11"
     inkscape:window-y="-11"
     inkscape:window-maximized="1" />
  <metadata
     id="metadata5">
    <rdf:RDF>
      <cc:Work
         rdf:about="">
        <dc:format>image/svg+xml</dc:format>
        <dc:type
           rdf:resource="http://purl.org/dc/dcmitype/StillImage" />
        <dc:title></dc:title>
      </cc:Work>
    </rdf:RDF>
  </metadata>
  <g
     inkscape:label="Layer 1"
     inkscape:groupmode="layer"
     id="layer1"
     transform="translate(0,-247)">
    <g
       id="g4597">
      <circle
         style="fill:none;stroke:#000000;stroke-width:0.27403757;stroke-miterlimit:4;stroke-dasharray:none;stroke-opacity:1"
         r="2.9020371"
         cy="255.47299"
         cx="13.789436"
         id="path3713" />
      <circle
         style="fill:none;stroke:#000000;stroke-width:0.27403757;stroke-miterlimit:4;stroke-dasharray:none;stroke-opacity:1"
         r="2.9020371"
         cy="263.62888"
         cx="13.789436"
         id="path3713-2" />
      <circle
         style="fill:none;stroke:#000000;stroke-width:0.27403757;stroke-miterlimit:4;stroke-dasharray:none;stroke-opacity:1"
         r="2.9020371"
         cy="279.9407"
         cx="13.789436"
         id="path3713-4" />
      <circle
         style="fill:none;stroke:#000000;stroke-width:0.27403757;stroke-miterlimit:4;stroke-dasharray:none;stroke-opacity:1"
         r="2.9020371"
         cy="271.78479"
         cx="13.789436"
         id="path3713-6" />
      <circle
         style="fill:none;stroke:#000000;stroke-width:0.27403757;stroke-miterlimit:4;stroke-dasharray:none;stroke-opacity:1"
         r="2.9020371"
         cy="288.09659"
         cx="13.789436"
         id="path3713-4-5" />
    </g>
    <g
       id="g4602"
       transform="translate(0.34661361)">
      <circle
         style="fill:none;stroke:#000000;stroke-width:0.27403757;stroke-miterlimit:4;stroke-dasharray:none;stroke-opacity:1"
         r="2.9020371"
         cy="263.00668"
         cx="29.733734"
         id="path3713-7" />
      <circle
         style="fill:none;stroke:#000000;stroke-width:0.27403757;stroke-miterlimit:4;stroke-dasharray:none;stroke-opacity:1"
         r="2.9020371"
         cy="271.32544"
         cx="29.733734"
         id="path3713-2-8" />
      <circle
         style="fill:none;stroke:#000000;stroke-width:0.27403757;stroke-miterlimit:4;stroke-dasharray:none;stroke-opacity:1"
         r="2.9020371"
         cy="279.64423"
         cx="29.733734"
         id="path3713-6-3" />
    </g>
    <g
       id="g4606">
      <circle
         style="fill:none;stroke:#000000;stroke-width:0.27403757;stroke-miterlimit:4;stroke-dasharray:none;stroke-opacity:1"
         r="2.9020371"
         cy="266.83194"
         cx="46.371262"
         id="path3713-7-8" />
      <circle
         style="fill:none;stroke:#000000;stroke-width:0.27403757;stroke-miterlimit:4;stroke-dasharray:none;stroke-opacity:1"
         r="2.9020371"
         cy="275.1507"
         cx="46.371262"
         id="path3713-2-8-8" />
    </g>
    <path
       style="fill:none;stroke:#000000;stroke-width:0.26458332px;stroke-linecap:butt;stroke-linejoin:miter;stroke-opacity:1"
       d="m 27.328309,262.98995 -10.757598,-7.14946 10.423511,15.368"
       id="path4620"
       inkscape:connector-curvature="0" />
    <path
       style="fill:none;stroke:#000000;stroke-width:0.26458332px;stroke-linecap:butt;stroke-linejoin:miter;stroke-opacity:1"
       d="m 16.570711,255.84049 10.557145,23.51972"
       id="path4622"
       inkscape:connector-curvature="0" />
    <path
       style="fill:none;stroke:#000000;stroke-width:0.26458332px;stroke-linecap:butt;stroke-linejoin:miter;stroke-opacity:1"
       d="m 27.328309,262.98995 -10.423511,0.80181 10.089424,7.41673"
       id="path4624"
       inkscape:connector-curvature="0" />
    <path
       style="fill:none;stroke:#000000;stroke-width:0.26458332px;stroke-linecap:butt;stroke-linejoin:miter;stroke-opacity:1"
       d="m 16.771163,272.07712 10.356693,7.28309"
       id="path4626"
       inkscape:connector-curvature="0" />
    <path
       style="fill:none;stroke:#000000;stroke-width:0.26458332px;stroke-linecap:butt;stroke-linejoin:miter;stroke-opacity:1"
       d="m 16.904798,263.79176 10.223058,15.56845"
       id="path4628"
       inkscape:connector-curvature="0" />
    <path
       style="fill:none;stroke:#000000;stroke-width:0.26458332px;stroke-linecap:butt;stroke-linejoin:miter;stroke-opacity:1"
       d="m 27.328309,262.98995 -10.557146,9.08717 10.223059,-0.86863"
       id="path4630"
       inkscape:connector-curvature="0" />
    <path
       style="fill:none;stroke:#000000;stroke-width:0.26458332px;stroke-linecap:butt;stroke-linejoin:miter;stroke-opacity:1"
       d="m 27.328309,262.98995 -10.757598,17.43934 10.423511,-9.2208"
       id="path4632"
       inkscape:connector-curvature="0" />
    <path
       style="fill:none;stroke:#000000;stroke-width:0.26458332px;stroke-linecap:butt;stroke-linejoin:miter;stroke-opacity:1"
       d="m 16.570711,280.42929 10.557145,-1.06908"
       id="path4634"
       inkscape:connector-curvature="0" />
    <path
       style="fill:none;stroke:#000000;stroke-width:0.26458332px;stroke-linecap:butt;stroke-linejoin:miter;stroke-opacity:1"
       d="M 27.328309,262.98995 16.904798,288.38056 26.994222,271.20849"
       id="path4636"
       inkscape:connector-curvature="0" />
    <path
       style="fill:none;stroke:#000000;stroke-width:0.26458332px;stroke-linecap:butt;stroke-linejoin:miter;stroke-opacity:1"
       d="m 16.904798,288.38056 10.223058,-9.02035"
       id="path4638"
       inkscape:connector-curvature="0"
       sodipodi:nodetypes="cc" />
    <path
       style="fill:none;stroke:#000000;stroke-width:0.26458332px;stroke-linecap:butt;stroke-linejoin:miter;stroke-opacity:1"
       d="m 43.36448,266.59809 -10.356694,-3.60814 10.356695,12.16077"
       id="path4640"
       inkscape:connector-curvature="0" />
    <path
       style="fill:none;stroke:#000000;stroke-width:0.26458332px;stroke-linecap:butt;stroke-linejoin:miter;stroke-opacity:1"
       d="m 43.36448,266.59809 -10.423511,4.81085 10.423512,3.74178"
       id="path4642"
       inkscape:connector-curvature="0" />
    <path
       style="fill:none;stroke:#000000;stroke-width:0.26458332px;stroke-linecap:butt;stroke-linejoin:miter;stroke-opacity:1"
       d="m 43.36448,266.59809 -10.223058,13.36348 10.223059,-4.81085"
       id="path4644"
       inkscape:connector-curvature="0" />
  </g>
</svg>
